…
Let's convert the `records` object to a tibble.

``` r
records %<>% as_tibble()
```

``` r
records
```

    ## # A tibble: 3,560 x 18
    ##    a     c        nk tz    gr    g     h     l     al    hh    r     u    
    ##  * <chr> <chr> <int> <chr> <chr> <chr> <chr> <chr> <chr> <chr> <chr> <chr>
    ##  1 Mozi… US        1 Amer… MA    A6qO… wfLQ… orof… en-U… 1.us… http… http…
    ##  2 Goog… US        0 Amer… UT    mwsz… mwsz… bitly <NA>  j.mp  http… http…
    ##  3 Mozi… US        1 Amer… DC    xxr3… xxr3… bitly en-US 1.us… http… http…
    ##  4 Mozi… BR        0 Amer… 27    zCaL… zUtu… alel… pt-br 1.us… dire… http…
    ##  5 Mozi… US        0 Amer… MA    9b6k… 9b6k… bitly en-U… bit.… http… http…
    ##  6 Mozi… US        0 Amer… MA    axNK… axNK… bitly en-U… bit.… http… http…
    ##  7 Mozi… PL        0 Euro… 77    wcnd… zkpJ… bnja… pl-P… 1.us… http… http…
    ##  8 Mozi… <NA>      0 ""    <NA>  wcnd… zkpJ… bnja… bg,e… 1.us… http… http…
    ##  9 Oper… <NA>      0 ""    <NA>  wcnd… zkpJ… bnja… en-U… 1.us… http… http…
    ## 10 Mozi… <NA>      0 ""    <NA>  zCaL… zUtu… alel… pt-B… 1.us… http… http…
    ## # ... with 3,550 more rows, and 6 more variables: t <int>, hc <int>,
    ## #   cy <chr>, ll <list>, `_heartbeat_` <int>, kw <chr>
Counting time zones
-------------------

We may be interested in counting the most often-occurring time zones.

``` r
tz_counts <- records %>% 
    count(tz) 
```

``` r
tz_counts
```

    ## # A tibble: 98 x 2
    ##    tz                                 n
    ##    <chr>                          <int>
    ##  1 ""                               521
    ##  2 Africa/Cairo                       3
    ##  3 Africa/Casablanca                  1
    ##  4 Africa/Ceuta                       2
    ##  5 Africa/Johannesburg                1
    ##  6 Africa/Lusaka                      1
    ##  7 America/Anchorage                  5
    ##  8 America/Argentina/Buenos_Aires     1
    ##  9 America/Argentina/Cordoba          1
    ## 10 America/Argentina/Mendoza          1
    ## # ... with 88 more rows
…
``` r
tz_counts <- records %>% 
    count(tz) 
```

``` r
tz_counts
```

    ## # A tibble: 98 x 2
    ##    tz                                 n
    ##    <chr>                          <int>
    ##  1 Africa/Cairo                       3
    ##  2 Africa/Casablanca                  1
    ##  3 Africa/Ceuta                       2
    ##  4 Africa/Johannesburg                1
    ##  5 Africa/Lusaka                      1
    ##  6 America/Anchorage                  5
    ##  7 America/Argentina/Buenos_Aires     1
    ##  8 America/Argentina/Cordoba          1
    ##  9 America/Argentina/Mendoza          1
    ## 10 America/Bogota                     3
    ## # ... with 88 more rows
…
Let's parse the `a` column to get some information about the most commonly used browsers.

``` r
records %<>%  
    mutate(browsers = str_split_fixed(records$a, " ", n = 2)[, 1])
```

``` r
records %>% 
    count(browsers) %>% 
    arrange(desc(n))
```

    ## # A tibble: 37 x 2
    ##    browsers                     n
    ##    <chr>                    <int>
    ##  1 Mozilla/5.0               2594
    ##  2 Mozilla/4.0                601
    ##  3 GoogleMaps/RochesterNY     121
    ##  4 ""                         120
    ##  5 Opera/9.80                  34
    ##  6 TEST_INTERNET_AGENT         24
    ##  7 GoogleProducer              21
    ##  8 Mozilla/6.0                  5
    ##  9 BlackBerry8520/5.0.0.681     4
    ## 10 BlackBerry8520/5.0.0.592     3
    ## # ... with 27 more rows
…
Now we'll aggregate these results to show the count of Windows and non-Windows users for each time zone.

``` r
agg_counts <- records_notnull %>% 
    group_by(tz, os) %>% 
    summarise(Users = n()) %>% 
    spread(os, Users, fill = 0)
```

``` r
agg_counts
```

    ## # A tibble: 97 x 3
    ## # Groups:   tz [97]
    ##    tz                             NonWin   Win
    ##    <chr>                           <dbl> <dbl>
    ##  1 Africa/Cairo                        0     3
    ##  2 Africa/Casablanca                   0     1
    ##  3 Africa/Ceuta                        0     2
    ##  4 Africa/Johannesburg                 0     1
    ##  5 Africa/Lusaka                       0     1
    ##  6 America/Anchorage                   4     1
    ##  7 America/Argentina/Buenos_Aires      1     0
    ##  8 America/Argentina/Cordoba           0     1
    ##  9 America/Argentina/Mendoza           0     1
    ## 10 America/Bogota                      1     2
    ## # ... with 87 more rows
…
