…
Loading the data
----------------

This data come from the US Department of Agriculture and report a set of food nutrient information. These data were made available by Ashley Williams in JSON format, where each food has a number of identifying attributes along with two lists of nutrients and portion sizes.

``` r
path <- "../datasets/usda_food/database.json"
db <- as_tibble(fromJSON(path, flatten = T))
```

``` r
db
```

    ## # A tibble: 6,636 x 7
    ##       id description       tags   manufacturer group  portions  nutrients 
    ##  * <int> <chr>             <list> <chr>        <chr>  <list>    <list>    
    ##  1  1008 Cheese, caraway   <chr … ""           Dairy… <data.fr… <data.fra…
    ##  2  1009 Cheese, cheddar   <chr … ""           Dairy… <data.fr… <data.fra…
    ##  3  1018 Cheese, edam      <chr … ""           Dairy… <data.fr… <data.fra…
    ##  4  1019 Cheese, feta      <chr … ""           Dairy… <data.fr… <data.fra…
    ##  5  1028 Cheese, mozzarel… <chr … ""           Dairy… <data.fr… <data.fra…
    ##  6  1029 Cheese, mozzarel… <chr … ""           Dairy… <data.fr… <data.fra…
    ##  7  1038 Cheese, romano    <chr … ""           Dairy… <data.fr… <data.fra…
    ##  8  1039 Cheese, roquefort <chr … ""           Dairy… <data.fr… <data.fra…
    ##  9  1048 Cheese spread, p… <chr … ""           Dairy… <data.fr… <data.fra…
    ## 10  1049 Cream, fluid, ha… <chr … ""           Dairy… <data.fr… <data.fra…
    ## # ... with 6,626 more rows
…
Without going too much in details, let's grep a subset of these information by selecting the `id`, `description`, `group` and `manufacturer` columns. In addition, we will rename the `description` and `group` columns to `food` and `fgroup`, respectively.

``` r
info <- db %>% 
    select(id, description, group, manufacturer) %>% 
    rename(food = description, fgroup = group)
```

Now let's see the distribution of food groups.

``` r
info %>% count(fgroup, sort = T)
```

    ## # A tibble: 25 x 2
    ##    fgroup                                n
    ##    <chr>                             <int>
    ##  1 Vegetables and Vegetable Products   812
    ##  2 Beef Products                       618
    ##  3 Baked Products                      496
    ##  4 Breakfast Cereals                   403
    ##  5 Fast Foods                          365
    ##  6 Legumes and Legume Products         365
    ##  7 Lamb, Veal, and Game Products       345
    ##  8 Sweets                              341
    ##  9 Fruits and Fruit Juices             328
    ## 10 Pork Products                       328
    ## # ... with 15 more rows
…
``` r
nutr_rows <- bind_rows(db$nutrients)
```

``` r
nutrients <- 
    bind_cols(id = ids, nutr_rows) %>% 
    rename(nutrient = description, nutgroup = group)
```

``` r
nutrients
```

    ## # A tibble: 389,355 x 5
    ##       id   value units nutrient                    nutgroup   
    ##    <int>   <dbl> <chr> <chr>                       <chr>      
    ##  1  1008   25.2  g     Protein                     Composition
    ##  2  1008   29.2  g     Total lipid (fat)           Composition
    ##  3  1008    3.06 g     Carbohydrate, by difference Composition
    ##  4  1008    3.28 g     Ash                         Other      
    ##  5  1008  376    kcal  Energy                      Energy     
    ##  6  1008   39.3  g     Water                       Composition
    ##  7  1008 1573    kJ    Energy                      Energy     
    ##  8  1008    0    g     Fiber, total dietary        Composition
    ##  9  1008  673    mg    Calcium, Ca                 Elements   
    ## 10  1008    0.64 mg    Iron, Fe                    Elements   
    ## # ... with 389,345 more rows

Now we can merge the previously created `info` dataframe with `nutrients`.

``` r
ndata <- full_join(info, nutrients, by = "id")
```

``` r
ndata
```

    ## # A tibble: 389,355 x 8
    ##       id food    fgroup    manufacturer   value units nutrient    nutgroup
    ##    <int> <chr>   <chr>     <chr>          <dbl> <chr> <chr>       <chr>   
    ##  1  1008 Cheese… Dairy an… ""             25.2  g     Protein     Composi…
    ##  2  1008 Cheese… Dairy an… ""             29.2  g     Total lipi… Composi…
    ##  3  1008 Cheese… Dairy an… ""              3.06 g     Carbohydra… Composi…
    ##  4  1008 Cheese… Dairy an… ""              3.28 g     Ash         Other   
    ##  5  1008 Cheese… Dairy an… ""            376    kcal  Energy      Energy  
    ##  6  1008 Cheese… Dairy an… ""             39.3  g     Water       Composi…
    ##  7  1008 Cheese… Dairy an… ""           1573    kJ    Energy      Energy  
    ##  8  1008 Cheese… Dairy an… ""              0    g     Fiber, tot… Composi…
    ##  9  1008 Cheese… Dairy an… ""            673    mg    Calcium, Ca Elements
    ## 10  1008 Cheese… Dairy an… ""              0.64 mg    Iron, Fe    Elements
    ## # ... with 389,345 more rows

Let's calculate median values by food group and nutrient type.

``` r
result <- ndata %>% 
    group_by(nutrient, fgroup) %>% 
    summarise(quant = median(value))
```

``` r
result
```

    ## # A tibble: 2,246 x 3
    ## # Groups:   nutrient [?]
    ##    nutrient         fgroup                             quant
    ##    <chr>            <chr>                              <dbl>
    ##  1 Adjusted Protein Sweets                            12.9  
    ##  2 Adjusted Protein Vegetables and Vegetable Products  2.18 
    ##  3 Alanine          Baby Foods                         0.107
    ##  4 Alanine          Baked Products                     0.248
    ##  5 Alanine          Beef Products                      1.55 
    ##  6 Alanine          Beverages                          0.003
    ##  7 Alanine          Breakfast Cereals                  0.311
    ##  8 Alanine          Cereal Grains and Pasta            0.373
    ##  9 Alanine          Dairy and Egg Products             0.273
    ## 10 Alanine          Ethnic Foods                       1.29 
    ## # ... with 2,236 more rows
…
