…
for (year in years) {
    path <- str_c("../datasets/babynames/yob", year, ".txt", sep = "")
    frame <- read_csv(path, col_names = c("name", "sex", "births"), 
                      col_types = cols(col_character(), col_character(), col_integer()))
    frame %<>% mutate("year" = year)
    names %<>% bind_rows(frame)
}
names %<>% drop_na()
```

``` r
names
```

    ## # A tibble: 1,690,784 x 4
    ##    name      sex   births  year
    ##    <chr>     <chr>  <int> <int>
    ##  1 Mary      F       7065  1880
    ##  2 Anna      F       2604  1880
    ##  3 Emma      F       2003  1880
    ##  4 Elizabeth F       1939  1880
    ##  5 Minnie    F       1746  1880
    ##  6 Margaret  F       1578  1880
    ##  7 Ida       F       1472  1880
    ##  8 Alice     F       1414  1880
    ##  9 Bertha    F       1320  1880
    ## 10 Sarah     F       1288  1880
    ## # ... with 1,690,774 more rows

We can now start aggregating this data by year and sex.

``` r
total_births <- names %>% 
    group_by(year, sex) %>% 
    summarise(tot_births = sum(births)) 
```

``` r
total_births
```

    ## # A tibble: 262 x 3
    ## # Groups:   year [?]
    ##     year sex   tot_births
    ##    <int> <chr>      <int>
    ##  1  1880 F          90993
    ##  2  1880 M         110493
    ##  3  1881 F          91955
    ##  4  1881 M         100748
    ##  5  1882 F         107851
    ##  6  1882 M         113687
    ##  7  1883 F         112322
    ##  8  1883 M         104632
    ##  9  1884 F         129021
    ## 10  1884 M         114445
    ## # ... with 252 more rows
…
names %<>% inner_join(births_year_sex, by = c("year", "sex"))
```

``` r
names %<>% 
    mutate(prop = births / tot_births) %>% 
    select(-tot_births)
```

``` r
names
```

    ## # A tibble: 1,690,784 x 5
    ##    name      sex   births  year   prop
    ##    <chr>     <chr>  <int> <int>  <dbl>
    ##  1 Mary      F       7065  1880 0.0776
    ##  2 Anna      F       2604  1880 0.0286
    ##  3 Emma      F       2003  1880 0.0220
    ##  4 Elizabeth F       1939  1880 0.0213
    ##  5 Minnie    F       1746  1880 0.0192
    ##  6 Margaret  F       1578  1880 0.0173
    ##  7 Ida       F       1472  1880 0.0162
    ##  8 Alice     F       1414  1880 0.0155
    ##  9 Bertha    F       1320  1880 0.0145
    ## 10 Sarah     F       1288  1880 0.0142
    ## # ... with 1,690,774 more rows

Let's subset these data to the top 1000 names for each year/sex combination.

``` r
top1000 <- names %>% 
    group_by(year, sex) %>% 
    top_n(1000, wt = births)
```

``` r
top1000
```

    ## # A tibble: 265,429 x 5
    ## # Groups:   year, sex [262]
    ##    name      sex   births  year   prop
    ##    <chr>     <chr>  <int> <int>  <dbl>
    ##  1 Mary      F       7065  1880 0.0776
    ##  2 Anna      F       2604  1880 0.0286
    ##  3 Emma      F       2003  1880 0.0220
    ##  4 Elizabeth F       1939  1880 0.0213
    ##  5 Minnie    F       1746  1880 0.0192
    ##  6 Margaret  F       1578  1880 0.0173
    ##  7 Ida       F       1472  1880 0.0162
    ##  8 Alice     F       1414  1880 0.0155
    ##  9 Bertha    F       1320  1880 0.0145
    ## 10 Sarah     F       1288  1880 0.0142
    ## # ... with 265,419 more rows
…
This plot indeed shows a decrease in using common names roughly starting from the half of the 20<sup>th</sup> century.
Let's now take the number of distinct names, sorted by popularity, in the top 50% of births. We'll start with boys born in 2010.

``` r
df <- boys %>% 
    filter(year == 2010)
df
```

    ## # A tibble: 1,004 x 5
    ## # Groups:   year, sex [1]
    ##    name      sex   births  year    prop
    ##    <chr>     <chr>  <int> <int>   <dbl>
    ##  1 Jacob     M      21875  2010 0.0115 
    ##  2 Ethan     M      17866  2010 0.00941
    ##  3 Michael   M      17133  2010 0.00903
    ##  4 Jayden    M      17030  2010 0.00897
    ##  5 William   M      16870  2010 0.00889
    ##  6 Alexander M      16634  2010 0.00876
    ##  7 Noah      M      16281  2010 0.00858
    ##  8 Daniel    M      15679  2010 0.00826
    ##  9 Aiden     M      15403  2010 0.00811
    ## 10 Anthony   M      15364  2010 0.00809
    ## # ... with 994 more rows
…
``` r
diversity <- top1000 %>% 
    group_by(year, sex) %>% 
    do(count = get_quantile_count(.)) %>% 
    mutate(count = unlist(count)) 
```

``` r
diversity
```

    ## Source: local data frame [262 x 3]
    ## Groups: <by row>
    ## 
    ## # A tibble: 262 x 3
    ##     year sex   count
    ##    <int> <chr> <int>
    ##  1  1880 F        37
    ##  2  1880 M        13
    ##  3  1881 F        37
    ##  4  1881 M        13
    ##  5  1882 F        37
    ##  6  1882 M        14
    ##  7  1883 F        38
    ##  8  1883 M        14
    ##  9  1884 F        38
    ## 10  1884 M        15
    ## # ... with 252 more rows
…
