…
Loading the data
----------------

This is a version of the above-mentioned dataset downloaded in June 2012.

``` r
fec <- read_csv("../datasets/fec/P00000001-ALL.csv")
```

``` r
fec
```

    ## # A tibble: 1,001,731 x 16
    ##    cmte_id cand_id cand_nm contbr_nm contbr_city contbr_st contbr_zip
    ##    <chr>   <chr>   <chr>   <chr>     <chr>       <chr>     <chr>     
    ##  1 C00410… P20002… Bachma… HARVEY, … MOBILE      AL        366010290 
    ##  2 C00410… P20002… Bachma… HARVEY, … MOBILE      AL        366010290 
    ##  3 C00410… P20002… Bachma… SMITH, L… LANETT      AL        368633403 
    ##  4 C00410… P20002… Bachma… BLEVINS,… PIGGOTT     AR        724548253 
    ##  5 C00410… P20002… Bachma… WARDENBU… HOT SPRING… AR        719016467 
    ##  6 C00410… P20002… Bachma… BECKMAN,… SPRINGDALE  AR        727647190 
    ##  7 C00410… P20002… Bachma… BLEVINS,… PIGGOTT     AR        724548253 
    ##  8 C00410… P20002… Bachma… BLEVINS,… PIGGOTT     AR        724548253 
    ##  9 C00410… P20002… Bachma… COLLINS,… MESA        AZ        852106725 
    ## 10 C00410… P20002… Bachma… COLEMAN,… TUCSON      AZ        857498865 
    ## # ... with 1,001,721 more rows, and 9 more variables:
    ## #   contbr_employer <chr>, contbr_occupation <chr>,
    ## #   contb_receipt_amt <dbl>, contb_receipt_dt <chr>, receipt_desc <chr>,
    ## #   memo_cd <chr>, memo_text <chr>, form_tp <chr>, file_num <int>
…
Let's restrict the dataset to only positive contributions, removing refunds.

``` r
fec %<>% 
    filter(contb_receipt_amt > 0)
```

``` r
fec
```

    ## # A tibble: 991,475 x 17
    ##    cmte_id cand_id cand_nm contbr_nm contbr_city contbr_st contbr_zip
    ##    <chr>   <chr>   <chr>   <chr>     <chr>       <chr>     <chr>     
    ##  1 C00410… P20002… Bachma… HARVEY, … MOBILE      AL        366010290 
    ##  2 C00410… P20002… Bachma… HARVEY, … MOBILE      AL        366010290 
    ##  3 C00410… P20002… Bachma… SMITH, L… LANETT      AL        368633403 
    ##  4 C00410… P20002… Bachma… BLEVINS,… PIGGOTT     AR        724548253 
    ##  5 C00410… P20002… Bachma… WARDENBU… HOT SPRING… AR        719016467 
    ##  6 C00410… P20002… Bachma… BECKMAN,… SPRINGDALE  AR        727647190 
    ##  7 C00410… P20002… Bachma… BLEVINS,… PIGGOTT     AR        724548253 
    ##  8 C00410… P20002… Bachma… BLEVINS,… PIGGOTT     AR        724548253 
    ##  9 C00410… P20002… Bachma… COLLINS,… MESA        AZ        852106725 
    ## 10 C00410… P20002… Bachma… COLEMAN,… TUCSON      AZ        857498865 
    ## # ... with 991,465 more rows, and 10 more variables:
    ## #   contbr_employer <chr>, contbr_occupation <chr>,
    ## #   contb_receipt_amt <dbl>, contb_receipt_dt <chr>, receipt_desc <chr>,
    ## #   memo_cd <chr>, memo_text <chr>, form_tp <chr>, file_num <int>,
    ## #   party <chr>

Donation statistics by Occupation and Employer
----------------------------------------------

Let's see if there is any trend of donations amount based on donators occupation and employer.

``` r
fec %>% 
    group_by(contbr_occupation) %>% 
    summarise(count = n()) %>% 
    arrange(desc(count))
```

    ## # A tibble: 45,065 x 2
    ##    contbr_occupation                       count
    ##    <chr>                                   <int>
    ##  1 RETIRED                                233990
    ##  2 INFORMATION REQUESTED                   35107
    ##  3 ATTORNEY                                34286
    ##  4 HOMEMAKER                               29931
    ##  5 PHYSICIAN                               23432
    ##  6 INFORMATION REQUESTED PER BEST EFFORTS  21138
    ##  7 ENGINEER                                14334
    ##  8 TEACHER                                 13991
    ##  9 CONSULTANT                              13273
    ## 10 PROFESSOR                               12555
    ## # ... with 45,055 more rows

``` r
fec %>% 
    group_by(contbr_employer) %>% 
    summarise(count = n()) %>% 
    arrange(desc(count))
```

    ## # A tibble: 135,643 x 2
    ##    contbr_employer                         count
    ##    <chr>                                   <int>
    ##  1 RETIRED                                206675
    ##  2 SELF-EMPLOYED                           94505
    ##  3 NOT EMPLOYED                            45877
    ##  4 INFORMATION REQUESTED                   36135
    ##  5 SELF                                    24385
    ##  6 INFORMATION REQUESTED PER BEST EFFORTS  22260
    ##  7 NONE                                    19929
    ##  8 HOMEMAKER                               18269
    ##  9 N/A                                      6308
    ## 10 SELF EMPLOYED                            6274
    ## # ... with 135,633 more rows
…
``` r
fec %>% 
    group_by(contbr_occupation) %>% 
    summarise(count = n()) %>% 
    arrange(desc(count))
```

    ## # A tibble: 45,048 x 2
    ##    contbr_occupation  count
    ##    <chr>              <int>
    ##  1 RETIRED           233990
    ##  2 NOT PROVIDED       63840
    ##  3 ATTORNEY           34286
    ##  4 HOMEMAKER          29931
    ##  5 PHYSICIAN          23432
    ##  6 ENGINEER           14334
    ##  7 TEACHER            13991
    ##  8 CONSULTANT         13273
    ##  9 PROFESSOR          12555
    ## 10 NOT EMPLOYED       12335
    ## # ... with 45,038 more rows

``` r
fec %>% 
    group_by(contbr_employer) %>% 
    summarise(count = n()) %>% 
    arrange(desc(count))
```

    ## # A tibble: 135,628 x 2
    ##    contbr_employer    count
    ##    <chr>              <int>
    ##  1 RETIRED           206675
    ##  2 SELF-EMPLOYED     125164
    ##  3 NOT PROVIDED       90979
    ##  4 NOT EMPLOYED       48391
    ##  5 HOMEMAKER          18269
    ##  6 US ARMY             1817
    ##  7 STUDENT             1786
    ##  8 OBAMA FOR AMERICA   1741
    ##  9 IBM                 1428
    ## 10 DISABLED            1259
    ## # ... with 135,618 more rows

After this cleaning, let's create another dataset where we remove all candidates but Barack Obama and Mitt Romney, the main two candidates for this election.

``` r
fec_mrbo <- fec %>% 
    filter(cand_nm %in% c("Obama, Barack", "Romney, Mitt"))
```

``` r
fec_mrbo
```

    ## # A tibble: 694,282 x 17
    ##    cmte_id cand_id cand_nm contbr_nm contbr_city contbr_st contbr_zip
    ##    <chr>   <chr>   <chr>   <chr>     <chr>       <chr>     <chr>     
    ##  1 C00431… P80003… Romney… ELDERBAU… DPO         AA        340230183 
    ##  2 C00431… P80003… Romney… ELDERBAU… DPO         AA        340230183 
    ##  3 C00431… P80003… Romney… CARLSEN,… APO         AE        091280020 
    ##  4 C00431… P80003… Romney… DELUCA, … APO         AE        091280005 
    ##  5 C00431… P80003… Romney… SARGENT,… APO         AE        090120092 
    ##  6 C00431… P80003… Romney… WILSON, … DPO         AE        098700023 
    ##  7 C00431… P80003… Romney… GRIFFIS,… APO         AE        091280011 
    ##  8 C00431… P80003… Romney… SARGENT,… APO         AE        090120092 
    ##  9 C00431… P80003… Romney… GRIFFIS,… APO         AE        091280011 
    ## 10 C00431… P80003… Romney… DELUCA, … APO         AE        091280005 
    ## # ... with 694,272 more rows, and 10 more variables:
    ## #   contbr_employer <chr>, contbr_occupation <chr>,
    ## #   contb_receipt_amt <dbl>, contb_receipt_dt <chr>, receipt_desc <chr>,
    ## #   memo_cd <chr>, memo_text <chr>, form_tp <chr>, file_num <int>,
    ## #   party <chr>
…
Let's aggregate the data by candidate name and state.

``` r
state_grouped <- fec_mrbo %>% 
    group_by(contbr_st, cand_nm) %>% 
    summarise(donations = sum(contb_receipt_amt)) %>% 
    mutate(donation_perc = donations / sum(donations))
```

``` r
state_grouped
```

    ## # A tibble: 126 x 4
    ## # Groups:   contbr_st [68]
    ##    contbr_st cand_nm       donations donation_perc
    ##    <chr>     <chr>             <dbl>         <dbl>
    ##  1 AA        Obama, Barack    56405        0.998  
    ##  2 AA        Romney, Mitt       135        0.00239
    ##  3 AB        Obama, Barack     2048        1      
    ##  4 AE        Obama, Barack    42974.       0.883  
    ##  5 AE        Romney, Mitt      5680        0.117  
    ##  6 AK        Obama, Barack   281840.       0.766  
    ##  7 AK        Romney, Mitt     86204.       0.234  
    ##  8 AL        Obama, Barack   543123.       0.507  
    ##  9 AL        Romney, Mitt    527304.       0.493  
    ## 10 AP        Obama, Barack    37130.       0.957  
    ## # ... with 116 more rows
…
